^E:\ОБУЧЕНИЕ\ПРОГРАММИНГ\17 BLOK DZ\17 BLOK DZ\17 BLOK DZ.CPP
E:\Обучение\программинг\17 BLOK DZ\17 BLOK DZ\DEBUG\VC142.PDB
E:\Обучение\программинг\17 BLOK DZ\17 BLOK DZ\DEBUG\VC142.IDB
E:\Обучение\программинг\17 BLOK DZ\17 BLOK DZ\DEBUG\17 BLOK DZ.OBJ
