^E:\ОБУЧЕНИЕ\ПРОГРАММИНГ\17 BLOK DZ\18 BLOL DZ\18 DZ\DEBUG\SOURCE.OBJ
E:\Обучение\программинг\17 BLOK DZ\18 BLOL DZ\18 DZ\DEBUG\18 DZ.EXE
E:\Обучение\программинг\17 BLOK DZ\18 BLOL DZ\18 DZ\DEBUG\18 DZ.ILK
E:\ОБУЧЕНИЕ\ПРОГРАММИНГ\17 BLOK DZ\18 BLOL DZ\18 DZ\DEBUG\18 DZ.PDB
